# MagicaVoxel @ Ephtracy

# group
o 

# material
mtllib wall_bl.mtl
usemtl palette

# normals
vn -1 0 0
vn 1 0 0
vn 0 0 1
vn 0 0 -1
vn 0 -1 0
vn 0 1 0

# texcoords
vt 0.349609 0.5
vt 0.369141 0.5
vt 0.373047 0.5
vt 0.677734 0.5

# verts
v -0.7 0 0.8
v -0.7 0 -6.4
v -0.7 4.2 0.9
v -0.7 4.2 0.8
v -0.7 4.3 0.9
v -0.7 4.3 0.8
v -0.7 4.4 0.9
v -0.7 4.4 0.8
v -0.7 4.4 -6.4
v -0.7 4.5 0.8
v -0.7 4.5 -6.4
v -0.5 2.9 0.9
v -0.5 2.9 0.8
v -0.5 3 0.9
v -0.5 3 0.8
v -0.2 0.8 0.9
v -0.2 0.8 0.8
v -0.2 1.1 0.9
v -0.2 1.1 0.8
v 0.1 3.5 0.9
v 0.1 3.5 0.8
v 0.1 3.6 0.8
v 0.1 3.8 0.9
v 0.1 3.8 0.8
v 0.5 2 0.9
v 0.5 2 0.8
v 0.5 2.3 0.9
v 0.5 2.3 0.8
v 0.7 0.5 0.9
v 0.7 0.5 0.8
v 0.7 0.7 0.9
v 0.7 0.7 0.8
v 1.2 1.2 0.9
v 1.2 1.2 0.8
v 1.2 1.4 0.9
v 1.2 1.4 0.8
v 1.2 3.9 0.9
v 1.2 3.9 0.8
v 1.2 4 0.9
v 1.2 4 0.8
v 1.3 2.9 0.9
v 1.3 2.9 0.8
v 1.3 3 0.9
v 1.3 3 0.8
v 2.4 0.4 0.9
v 2.4 0.4 0.8
v 2.4 0.5 0.9
v 2.4 0.5 0.8
v 2.5 1.9 0.9
v 2.5 1.9 0.8
v 2.5 2 0.9
v 2.5 2 0.8
v 2.6 4 0.9
v 2.6 4 0.8
v 2.6 4.1 0.9
v 2.6 4.1 0.8
v -0.1 2.9 0.9
v -0.1 2.9 0.8
v -0.1 3 0.9
v -0.1 3 0.8
v 0.1 0.8 0.9
v 0.1 0.8 0.8
v 0.1 1.1 0.9
v 0.1 1.1 0.8
v 0.7 3.5 0.9
v 0.7 3.5 0.8
v 0.7 3.8 0.9
v 0.7 3.8 0.8
v 0.9 0 -0.8
v 0.9 0 -6.4
v 0.9 4.4 -0.8
v 0.9 4.4 -6.4
v 0.9 4.5 -0.8
v 0.9 4.5 -6.4
v 1.1 2 0.9
v 1.1 2 0.8
v 1.1 2.3 0.9
v 1.1 2.3 0.8
v 1.3 0.5 0.9
v 1.3 0.5 0.8
v 1.3 0.7 0.9
v 1.3 0.7 0.8
v 1.5 3.9 0.9
v 1.5 3.9 0.8
v 1.5 4 0.9
v 1.5 4 0.8
v 1.6 1.2 0.9
v 1.6 1.2 0.8
v 1.6 1.4 0.9
v 1.6 1.4 0.8
v 1.9 2.9 0.9
v 1.9 2.9 0.8
v 1.9 3 0.9
v 1.9 3 0.8
v 2.8 0 0.8
v 2.8 0 -0.8
v 2.8 0.1 0.8
v 2.8 0.1 -0.8
v 2.8 0.4 0.9
v 2.8 0.4 0.8
v 2.8 0.5 0.9
v 2.8 0.5 0.8
v 2.9 1.9 0.9
v 2.9 1.9 0.8
v 2.9 2 0.9
v 2.9 2 0.8
v 3 4 0.9
v 3 4 0.8
v 3 4.1 0.9
v 3 4.1 0.8
v 3.2 0.1 0.8
v 3.2 0.1 -0.8
v 3.2 4.2 0.9
v 3.2 4.2 0.8
v 3.2 4.3 0.9
v 3.2 4.3 0.8
v 3.2 4.3 0.7
v 3.2 4.4 0.9
v 3.2 4.4 0.8
v 3.2 4.4 0.7
v 3.2 4.4 -0.8
v 3.2 4.5 0.8
v 3.2 4.5 -0.8
v -0.7 4.2 0.9
v -0.7 4.3 0.9
v -0.7 4.4 0.9
v -0.5 2.9 0.9
v -0.5 3 0.9
v -0.2 0.8 0.9
v -0.2 1.1 0.9
v -0.1 2.9 0.9
v -0.1 3 0.9
v 0.1 0.8 0.9
v 0.1 1.1 0.9
v 0.1 3.5 0.9
v 0.1 3.8 0.9
v 0.5 2 0.9
v 0.5 2.3 0.9
v 0.7 0.5 0.9
v 0.7 0.7 0.9
v 0.7 3.5 0.9
v 0.7 3.8 0.9
v 1.1 2 0.9
v 1.1 2.3 0.9
v 1.2 1.2 0.9
v 1.2 1.4 0.9
v 1.2 3.9 0.9
v 1.2 4 0.9
v 1.3 0.5 0.9
v 1.3 0.7 0.9
v 1.3 2.9 0.9
v 1.3 3 0.9
v 1.5 3.9 0.9
v 1.5 4 0.9
v 1.6 1.2 0.9
v 1.6 1.4 0.9
v 1.9 2.9 0.9
v 1.9 3 0.9
v 2.4 0.4 0.9
v 2.4 0.5 0.9
v 2.5 1.9 0.9
v 2.5 2 0.9
v 2.6 4 0.9
v 2.6 4.1 0.9
v 2.8 0.4 0.9
v 2.8 0.5 0.9
v 2.9 1.9 0.9
v 2.9 2 0.9
v 3 4 0.9
v 3 4.1 0.9
v 3.2 4.2 0.9
v 3.2 4.3 0.9
v 3.2 4.4 0.9
v -0.7 0 0.8
v -0.7 4.2 0.8
v -0.7 4.4 0.8
v -0.7 4.5 0.8
v -0.5 2.9 0.8
v -0.5 3 0.8
v -0.4 3 0.8
v -0.4 3.1 0.8
v -0.2 0.8 0.8
v -0.2 1.1 0.8
v -0.2 1.5 0.8
v -0.2 3.6 0.8
v -0.2 4 0.8
v -0.1 2.9 0.8
v -0.1 3 0.8
v -0.1 3.1 0.8
v 0.1 0.8 0.8
v 0.1 1.1 0.8
v 0.1 1.5 0.8
v 0.1 3.5 0.8
v 0.1 3.6 0.8
v 0.1 3.8 0.8
v 0.5 2 0.8
v 0.5 2.3 0.8
v 0.5 2.5 0.8
v 0.7 0.1 0.8
v 0.7 0.5 0.8
v 0.7 0.7 0.8
v 0.7 3.5 0.8
v 0.7 3.8 0.8
v 0.7 4 0.8
v 0.9 2.3 0.8
v 0.9 2.5 0.8
v 1.1 0.1 0.8
v 1.1 0.5 0.8
v 1.1 1.1 0.8
v 1.1 1.4 0.8
v 1.1 2 0.8
v 1.1 2.3 0.8
v 1.2 1.2 0.8
v 1.2 1.4 0.8
v 1.2 3.9 0.8
v 1.2 4 0.8
v 1.3 0.5 0.8
v 1.3 0.7 0.8
v 1.3 2.9 0.8
v 1.3 3 0.8
v 1.4 3 0.8
v 1.4 3.2 0.8
v 1.5 1.1 0.8
v 1.5 1.2 0.8
v 1.5 3.9 0.8
v 1.5 4 0.8
v 1.6 1.2 0.8
v 1.6 1.4 0.8
v 1.9 2.9 0.8
v 1.9 3 0.8
v 1.9 3.2 0.8
v 2.2 0.4 0.8
v 2.2 0.7 0.8
v 2.4 0.4 0.8
v 2.4 0.5 0.8
v 2.4 1.9 0.8
v 2.4 2.2 0.8
v 2.5 1.9 0.8
v 2.5 2 0.8
v 2.6 3.9 0.8
v 2.6 4 0.8
v 2.6 4.1 0.8
v 2.7 0.5 0.8
v 2.7 0.7 0.8
v 2.8 0 0.8
v 2.8 0.1 0.8
v 2.8 0.4 0.8
v 2.8 0.5 0.8
v 2.9 1.9 0.8
v 2.9 2 0.8
v 2.9 2.2 0.8
v 2.9 3.9 0.8
v 2.9 4 0.8
v 3 4 0.8
v 3 4.1 0.8
v 3.2 0.1 0.8
v 3.2 4.2 0.8
v 3.2 4.4 0.8
v 3.2 4.5 0.8
v 0.9 0 -0.8
v 0.9 4.4 -0.8
v 0.9 4.5 -0.8
v 2.8 0 -0.8
v 2.8 0.1 -0.8
v 3.2 0.1 -0.8
v 3.2 4.4 -0.8
v 3.2 4.5 -0.8
v -0.7 0 -6.4
v -0.7 4.4 -6.4
v -0.7 4.5 -6.4
v 0.9 0 -6.4
v 0.9 4.4 -6.4
v 0.9 4.5 -6.4
v -0.7 0 0.8
v 2.8 0 0.8
v 0.9 0 -0.8
v 2.8 0 -0.8
v -0.7 0 -6.4
v 0.9 0 -6.4
v 2.8 0.1 0.8
v 3.2 0.1 0.8
v 2.8 0.1 -0.8
v 3.2 0.1 -0.8
v 2.4 0.4 0.9
v 2.8 0.4 0.9
v 2.4 0.4 0.8
v 2.8 0.4 0.8
v 0.7 0.5 0.9
v 1.3 0.5 0.9
v 0.7 0.5 0.8
v 1.1 0.5 0.8
v 1.3 0.5 0.8
v -0.2 0.8 0.9
v 0.1 0.8 0.9
v -0.2 0.8 0.8
v 0.1 0.8 0.8
v 1.2 1.2 0.9
v 1.6 1.2 0.9
v 1.2 1.2 0.8
v 1.5 1.2 0.8
v 1.6 1.2 0.8
v 2.5 1.9 0.9
v 2.9 1.9 0.9
v 2.5 1.9 0.8
v 2.9 1.9 0.8
v 0.5 2 0.9
v 1.1 2 0.9
v 0.5 2 0.8
v 1.1 2 0.8
v -0.5 2.9 0.9
v -0.1 2.9 0.9
v 1.3 2.9 0.9
v 1.9 2.9 0.9
v -0.5 2.9 0.8
v -0.1 2.9 0.8
v 1.3 2.9 0.8
v 1.9 2.9 0.8
v 0.1 3.5 0.9
v 0.7 3.5 0.9
v 0.1 3.5 0.8
v 0.7 3.5 0.8
v 1.2 3.9 0.9
v 1.5 3.9 0.9
v 1.2 3.9 0.8
v 1.5 3.9 0.8
v 2.6 4 0.9
v 3 4 0.9
v 2.6 4 0.8
v 2.9 4 0.8
v 3 4 0.8
v -0.7 4.2 0.9
v 3.2 4.2 0.9
v -0.7 4.2 0.8
v 3.2 4.2 0.8
v 2.4 0.5 0.9
v 2.8 0.5 0.9
v 2.4 0.5 0.8
v 2.7 0.5 0.8
v 2.8 0.5 0.8
v 0.7 0.7 0.9
v 1.3 0.7 0.9
v 0.7 0.7 0.8
v 1.3 0.7 0.8
v -0.2 1.1 0.9
v 0.1 1.1 0.9
v -0.2 1.1 0.8
v 0.1 1.1 0.8
v 1.2 1.4 0.9
v 1.6 1.4 0.9
v 1.2 1.4 0.8
v 1.6 1.4 0.8
v 2.5 2 0.9
v 2.9 2 0.9
v 2.5 2 0.8
v 2.9 2 0.8
v 0.5 2.3 0.9
v 1.1 2.3 0.9
v 0.5 2.3 0.8
v 0.9 2.3 0.8
v 1.1 2.3 0.8
v -0.5 3 0.9
v -0.1 3 0.9
v 1.3 3 0.9
v 1.9 3 0.9
v -0.5 3 0.8
v -0.4 3 0.8
v -0.1 3 0.8
v 1.3 3 0.8
v 1.4 3 0.8
v 1.9 3 0.8
v 0.1 3.8 0.9
v 0.7 3.8 0.9
v 0.1 3.8 0.8
v 0.7 3.8 0.8
v 1.2 4 0.9
v 1.5 4 0.9
v 1.2 4 0.8
v 1.5 4 0.8
v 2.6 4.1 0.9
v 3 4.1 0.9
v 2.6 4.1 0.8
v 3 4.1 0.8
v -0.7 4.4 0.9
v 3.2 4.4 0.9
v -0.7 4.4 0.8
v 3.2 4.4 0.8
v -0.7 4.5 0.8
v 3.2 4.5 0.8
v 0.9 4.5 -0.8
v 3.2 4.5 -0.8
v -0.7 4.5 -6.4
v 0.9 4.5 -6.4

# faces
f 4/3/1 2/3/1 1/3/1
f 5/2/1 4/2/1 3/2/1
f 6/3/1 2/3/1 4/3/1
f 6/2/1 4/2/1 5/2/1
f 7/4/1 6/4/1 5/4/1
f 8/3/1 2/3/1 6/3/1
f 8/4/1 6/4/1 7/4/1
f 9/3/1 2/3/1 8/3/1
f 10/2/1 9/2/1 8/2/1
f 11/2/1 9/2/1 10/2/1
f 14/2/1 13/2/1 12/2/1
f 15/2/1 13/2/1 14/2/1
f 18/2/1 17/2/1 16/2/1
f 19/2/1 17/2/1 18/2/1
f 22/2/1 21/2/1 20/2/1
f 23/2/1 22/2/1 20/2/1
f 24/2/1 22/2/1 23/2/1
f 27/2/1 26/2/1 25/2/1
f 28/2/1 26/2/1 27/2/1
f 31/2/1 30/2/1 29/2/1
f 32/2/1 30/2/1 31/2/1
f 35/2/1 34/2/1 33/2/1
f 36/2/1 34/2/1 35/2/1
f 39/2/1 38/2/1 37/2/1
f 40/2/1 38/2/1 39/2/1
f 43/2/1 42/2/1 41/2/1
f 44/2/1 42/2/1 43/2/1
f 47/2/1 46/2/1 45/2/1
f 48/2/1 46/2/1 47/2/1
f 51/2/1 50/2/1 49/2/1
f 52/2/1 50/2/1 51/2/1
f 55/2/1 54/2/1 53/2/1
f 56/2/1 54/2/1 55/2/1
f 57/2/2 58/2/2 59/2/2
f 59/2/2 58/2/2 60/2/2
f 61/2/2 62/2/2 63/2/2
f 63/2/2 62/2/2 64/2/2
f 65/2/2 66/2/2 67/2/2
f 67/2/2 66/2/2 68/2/2
f 69/3/2 70/3/2 71/3/2
f 71/3/2 70/3/2 72/3/2
f 71/2/2 72/2/2 73/2/2
f 73/2/2 72/2/2 74/2/2
f 75/2/2 76/2/2 77/2/2
f 77/2/2 76/2/2 78/2/2
f 79/2/2 80/2/2 81/2/2
f 81/2/2 80/2/2 82/2/2
f 83/2/2 84/2/2 85/2/2
f 85/2/2 84/2/2 86/2/2
f 87/2/2 88/2/2 89/2/2
f 89/2/2 88/2/2 90/2/2
f 91/2/2 92/2/2 93/2/2
f 93/2/2 92/2/2 94/2/2
f 95/3/2 96/3/2 97/3/2
f 97/3/2 96/3/2 98/3/2
f 99/2/2 100/2/2 101/2/2
f 101/2/2 100/2/2 102/2/2
f 103/2/2 104/2/2 105/2/2
f 105/2/2 104/2/2 106/2/2
f 107/2/2 108/2/2 109/2/2
f 109/2/2 108/2/2 110/2/2
f 111/3/2 112/3/2 114/3/2
f 113/2/2 114/2/2 115/2/2
f 114/3/2 112/3/2 116/3/2
f 115/2/2 114/2/2 116/2/2
f 116/3/2 112/3/2 117/3/2
f 115/4/2 116/4/2 118/4/2
f 116/1/2 117/1/2 119/1/2
f 118/4/2 116/4/2 119/4/2
f 117/3/2 112/3/2 120/3/2
f 119/1/2 117/1/2 120/1/2
f 120/3/2 112/3/2 121/3/2
f 119/2/2 120/2/2 122/2/2
f 120/2/2 121/2/2 122/2/2
f 122/2/2 121/2/2 123/2/2
f 131/2/3 128/2/3 127/2/3
f 132/2/3 128/2/3 131/2/3
f 133/2/3 130/2/3 129/2/3
f 134/2/3 130/2/3 133/2/3
f 141/2/3 136/2/3 135/2/3
f 142/2/3 136/2/3 141/2/3
f 143/2/3 138/2/3 137/2/3
f 144/2/3 138/2/3 143/2/3
f 149/2/3 140/2/3 139/2/3
f 150/2/3 140/2/3 149/2/3
f 153/2/3 148/2/3 147/2/3
f 154/2/3 148/2/3 153/2/3
f 155/2/3 146/2/3 145/2/3
f 156/2/3 146/2/3 155/2/3
f 157/2/3 152/2/3 151/2/3
f 158/2/3 152/2/3 157/2/3
f 165/2/3 160/2/3 159/2/3
f 166/2/3 160/2/3 165/2/3
f 167/2/3 162/2/3 161/2/3
f 168/2/3 162/2/3 167/2/3
f 169/2/3 164/2/3 163/2/3
f 170/2/3 164/2/3 169/2/3
f 171/2/3 125/2/3 124/2/3
f 172/4/3 126/4/3 125/4/3
f 172/2/3 125/2/3 171/2/3
f 173/4/3 126/4/3 172/4/3
f 178/3/3 175/3/3 174/3/3
f 179/3/3 175/3/3 178/3/3
f 180/3/3 175/3/3 179/3/3
f 181/3/3 175/3/3 180/3/3
f 182/3/3 178/3/3 174/3/3
f 183/3/3 178/3/3 182/3/3
f 184/3/3 178/3/3 183/3/3
f 185/3/3 175/3/3 181/3/3
f 186/3/3 175/3/3 185/3/3
f 187/3/3 178/3/3 184/3/3
f 188/2/3 181/2/3 180/2/3
f 189/3/3 185/3/3 181/3/3
f 189/2/3 181/2/3 188/2/3
f 190/3/3 182/3/3 174/3/3
f 191/2/3 184/2/3 183/2/3
f 192/3/3 187/3/3 184/3/3
f 192/3/3 188/3/3 187/3/3
f 192/2/3 184/2/3 191/2/3
f 192/3/3 189/3/3 188/3/3
f 193/3/3 185/3/3 189/3/3
f 193/3/3 189/3/3 192/3/3
f 194/2/3 186/2/3 185/2/3
f 194/3/3 185/3/3 193/3/3
f 195/2/3 186/2/3 194/2/3
f 196/3/3 191/3/3 190/3/3
f 196/3/3 192/3/3 191/3/3
f 196/3/3 193/3/3 192/3/3
f 197/3/3 193/3/3 196/3/3
f 198/3/3 193/3/3 197/3/3
f 199/3/3 190/3/3 174/3/3
f 199/3/3 196/3/3 190/3/3
f 200/3/3 196/3/3 199/3/3
f 201/3/3 196/3/3 200/3/3
f 202/3/3 193/3/3 198/3/3
f 203/2/3 186/2/3 195/2/3
f 204/3/3 175/3/3 186/3/3
f 204/2/3 186/2/3 203/2/3
f 205/2/3 198/2/3 197/2/3
f 206/3/3 203/3/3 202/3/3
f 206/2/3 198/2/3 205/2/3
f 206/3/3 202/3/3 198/3/3
f 206/3/3 204/3/3 203/3/3
f 207/3/3 199/3/3 174/3/3
f 207/2/3 200/2/3 199/2/3
f 208/2/3 200/2/3 207/2/3
f 209/3/3 196/3/3 201/3/3
f 210/3/3 196/3/3 209/3/3
f 211/3/3 196/3/3 210/3/3
f 212/3/3 206/3/3 205/3/3
f 213/2/3 210/2/3 209/2/3
f 214/3/3 211/3/3 210/3/3
f 214/2/3 210/2/3 213/2/3
f 214/3/3 212/3/3 211/3/3
f 215/3/3 204/3/3 206/3/3
f 215/3/3 212/3/3 214/3/3
f 215/3/3 206/3/3 212/3/3
f 216/3/3 175/3/3 204/3/3
f 216/3/3 204/3/3 215/3/3
f 217/3/3 208/3/3 207/3/3
f 218/3/3 209/3/3 201/3/3
f 219/3/3 215/3/3 214/3/3
f 220/3/3 215/3/3 219/3/3
f 221/3/3 215/3/3 220/3/3
f 222/3/3 215/3/3 221/3/3
f 223/3/3 218/3/3 217/3/3
f 223/2/3 213/2/3 209/2/3
f 223/3/3 209/3/3 218/3/3
f 224/2/3 213/2/3 223/2/3
f 225/3/3 215/3/3 222/3/3
f 226/3/3 175/3/3 216/3/3
f 227/3/3 224/3/3 223/3/3
f 228/3/3 219/3/3 214/3/3
f 229/3/3 219/3/3 228/3/3
f 229/3/3 228/3/3 227/3/3
f 230/2/3 222/2/3 221/2/3
f 231/3/3 225/3/3 222/3/3
f 231/3/3 226/3/3 225/3/3
f 231/2/3 222/2/3 230/2/3
f 232/3/3 230/3/3 229/3/3
f 232/3/3 229/3/3 227/3/3
f 232/3/3 231/3/3 230/3/3
f 232/3/3 217/3/3 207/3/3
f 232/3/3 227/3/3 223/3/3
f 232/3/3 223/3/3 217/3/3
f 233/3/3 231/3/3 232/3/3
f 234/3/3 232/3/3 207/3/3
f 234/2/3 233/2/3 232/2/3
f 235/2/3 233/2/3 234/2/3
f 236/3/3 231/3/3 233/3/3
f 237/3/3 231/3/3 236/3/3
f 238/3/3 236/3/3 233/3/3
f 238/2/3 237/2/3 236/2/3
f 239/2/3 237/2/3 238/2/3
f 240/3/3 226/3/3 231/3/3
f 240/3/3 231/3/3 237/3/3
f 241/3/3 175/3/3 226/3/3
f 241/3/3 226/3/3 240/3/3
f 242/3/3 175/3/3 241/3/3
f 243/2/3 233/2/3 235/2/3
f 244/3/3 238/3/3 233/3/3
f 244/2/3 233/2/3 243/2/3
f 245/3/3 207/3/3 174/3/3
f 245/3/3 234/3/3 207/3/3
f 246/3/3 234/3/3 245/3/3
f 247/3/3 234/3/3 246/3/3
f 248/3/3 244/3/3 243/3/3
f 249/3/3 238/3/3 244/3/3
f 249/3/3 248/3/3 247/3/3
f 249/3/3 244/3/3 248/3/3
f 249/3/3 247/3/3 246/3/3
f 250/2/3 237/2/3 239/2/3
f 251/3/3 240/3/3 237/3/3
f 251/2/3 237/2/3 250/2/3
f 252/2/3 241/2/3 240/2/3
f 252/3/3 240/3/3 251/3/3
f 253/2/3 241/2/3 252/2/3
f 254/3/3 250/3/3 249/3/3
f 254/3/3 251/3/3 250/3/3
f 254/3/3 253/3/3 252/3/3
f 254/3/3 252/3/3 251/3/3
f 255/3/3 175/3/3 242/3/3
f 256/3/3 249/3/3 246/3/3
f 256/3/3 255/3/3 254/3/3
f 256/3/3 254/3/3 249/3/3
f 257/3/3 175/3/3 255/3/3
f 257/3/3 255/3/3 256/3/3
f 258/2/3 177/2/3 176/2/3
f 259/2/3 177/2/3 258/2/3
f 260/3/4 261/3/4 263/3/4
f 263/3/4 261/3/4 264/3/4
f 264/3/4 261/3/4 265/3/4
f 261/2/4 262/2/4 266/2/4
f 265/3/4 261/3/4 266/3/4
f 266/2/4 262/2/4 267/2/4
f 268/3/4 269/3/4 271/3/4
f 269/2/4 270/2/4 272/2/4
f 271/3/4 269/3/4 272/3/4
f 272/2/4 270/2/4 273/2/4
f 276/3/5 275/3/5 274/3/5
f 277/3/5 275/3/5 276/3/5
f 278/3/5 276/3/5 274/3/5
f 279/3/5 276/3/5 278/3/5
f 282/3/5 281/3/5 280/3/5
f 283/3/5 281/3/5 282/3/5
f 286/2/5 285/2/5 284/2/5
f 287/2/5 285/2/5 286/2/5
f 290/2/5 289/2/5 288/2/5
f 291/2/5 289/2/5 290/2/5
f 292/2/5 289/2/5 291/2/5
f 295/2/5 294/2/5 293/2/5
f 296/2/5 294/2/5 295/2/5
f 299/2/5 298/2/5 297/2/5
f 300/2/5 298/2/5 299/2/5
f 301/2/5 298/2/5 300/2/5
f 304/2/5 303/2/5 302/2/5
f 305/2/5 303/2/5 304/2/5
f 308/2/5 307/2/5 306/2/5
f 309/2/5 307/2/5 308/2/5
f 314/2/5 311/2/5 310/2/5
f 315/2/5 311/2/5 314/2/5
f 316/2/5 313/2/5 312/2/5
f 317/2/5 313/2/5 316/2/5
f 320/2/5 319/2/5 318/2/5
f 321/2/5 319/2/5 320/2/5
f 324/2/5 323/2/5 322/2/5
f 325/2/5 323/2/5 324/2/5
f 328/2/5 327/2/5 326/2/5
f 329/2/5 327/2/5 328/2/5
f 330/2/5 327/2/5 329/2/5
f 333/2/5 332/2/5 331/2/5
f 334/2/5 332/2/5 333/2/5
f 335/2/6 336/2/6 337/2/6
f 337/2/6 336/2/6 338/2/6
f 338/2/6 336/2/6 339/2/6
f 340/2/6 341/2/6 342/2/6
f 342/2/6 341/2/6 343/2/6
f 344/2/6 345/2/6 346/2/6
f 346/2/6 345/2/6 347/2/6
f 348/2/6 349/2/6 350/2/6
f 350/2/6 349/2/6 351/2/6
f 352/2/6 353/2/6 354/2/6
f 354/2/6 353/2/6 355/2/6
f 356/2/6 357/2/6 358/2/6
f 358/2/6 357/2/6 359/2/6
f 359/2/6 357/2/6 360/2/6
f 361/2/6 362/2/6 365/2/6
f 365/2/6 362/2/6 366/2/6
f 366/2/6 362/2/6 367/2/6
f 363/2/6 364/2/6 368/2/6
f 368/2/6 364/2/6 369/2/6
f 369/2/6 364/2/6 370/2/6
f 371/2/6 372/2/6 373/2/6
f 373/2/6 372/2/6 374/2/6
f 375/2/6 376/2/6 377/2/6
f 377/2/6 376/2/6 378/2/6
f 379/2/6 380/2/6 381/2/6
f 381/2/6 380/2/6 382/2/6
f 383/4/6 384/4/6 385/4/6
f 385/4/6 384/4/6 386/4/6
f 387/2/6 388/2/6 389/2/6
f 389/2/6 388/2/6 390/2/6
f 387/2/6 389/2/6 391/2/6
f 391/2/6 389/2/6 392/2/6
